//id	name	item_id	char_id	action_id	hull	engine	mobility	cannon	component	level_restriction	class_restriction	durability	durability_recovery	defense	physical_resistance	min_attack	max_attack	attack_range	reloading_time	cannon_area_of_effect	cargo_capacity	fuel	fuel_consumption	attack_speed	movement_speed	description	remark
1	Guppy	3988	305	405	43	15,16	8,9,10	53,54,55	73,74	15	-1	0	0	0	0	0	0	0	0	0	24	0	0	0	0	0	0
2	Transporter Type I	3988	306	405	44	17,18	11,12,13	56,57,58	73,74	20	-1	0	0	0	0	0	0	0	0	0	24	0	0	0	0	0	0
3	Flying Fish	3988	307	405	45	19,20	14,113,114	59,60,61	73,74	30	-1	0	0	0	0	0	0	0	0	0	24	0	0	0	0	0	0
4	Turtle	3988	308	405	46	146,147	124,125,126	71,72,157	73,74	15	-1	0	0	0	0	0	0	0	0	0	24	0	0	0	0	0	0
5	Windseeker	3988	309	405	47	148,149	127,128,129	158,159,160	73,74	20	-1	0	0	0	0	0	0	0	0	0	24	0	0	0	0	0	0
6	Swordfish	3988	310	405	48	150,151	130,131,132	161,162,163	73,74	30	-1	0	0	0	0	0	0	0	0	0	24	0	0	0	0	0	0
7	Low level boat 7	3988	432	0	49	109	99	53,54	-1	0	-1	0	0	0	0	0	0	0	0	0	0	0	0	0	0	0	0
8	Boat 8	3988	432	0	50	110	100	53,54	-1	0	-1	0	0	0	0	0	0	0	0	0	0	0	0	0	0	0	0
9	Boat 9	3988	432	0	51	111	101	53,54	-1	0	-1	0	0	0	0	0	0	0	0	0	0	0	0	0	0	0	0
10	Boat 10	3988	432	0	52	112	102	53,54	-1	0	-1	0	0	0	0	0	0	0	0	0	0	0	0	0	0	0	0
11	Phantom Galley	3988	301	401	1	21,142	115,116,117,118	62,63,64	73,74,75	35	-1	0	0	0	0	0	0	0	0	0	32	0	0	0	0	0	0
12	Silver Dolphin	3988	301	401	2	143,144	117,118,119,120,121	65,66,67	73,73	40	-1	0	0	0	0	0	0	0	0	0	32	0	0	0	0	0	0
13	Great White Shark	3988	301	401	3	145	120,121,122,123	68,69,70	73,74	45	-1	0	0	0	0	0	0	0	0	0	32	0	0	0	0	0	0
14	Torrent Galley	3988	302	402	4	152,153	133,134,135	164,165,166	73,74,76	35	-1	0	0	0	0	0	0	0	0	0	32	0	0	0	0	0	0
15	Goddess	3988	302	402	5	154,155	136,137,138	167,168,169	73,74	40	-1	0	0	0	0	0	0	0	0	0	32	0	0	0	0	0	0
16	Eagle	3988	303	403	6	156	139,140,141	170,171,172	73,74,76	45	-1	0	0	0	0	0	0	0	0	0	32	0	0	0	0	0	0
17	Ark	3988	304	404	7	21	14	53,54	-1	0	-1	0	0	0	0	0	0	0	0	0	32	0	0	0	0	0	0