0	#MISSCRIPT_NPCDEFINE_LUA_000098#	1	436	1	134423,52988	134423,52988	174	#RESOURCE_AREASET_TXT_000016#	20	0	r_talk73	0
1	#MISSCRIPT_MISSIONSCRIPT01_LUA_000400#	1	19	12	135671,48320	135671,48320	174	#RESOURCE_AREASET_TXT_000016#	20	0	r_talk74	0
2	#MISSCRIPT_NPCDEFINE_LUA_000099#	1	19	11	135298,49926	135298,49926	279	#RESOURCE_AREASET_TXT_000016#	20	0	r_talk75	0
3	#MISSCRIPT_NPCDEFINE_LUA_000100#	1	419	3	131811,50056	131811,50056	-289	#RESOURCE_AREASET_TXT_000016#	20	0	r_talk76	0
4	#MISSCRIPT_MISSIONSCRIPT01_LUA_000096#	1	11	15	131577,50700	131577,50700	144	#RESOURCE_AREASET_TXT_000016#	20	0	r_talk77	0
5	#MISSCRIPT_MISSIONSCRIPT01_LUA_000368#	1	5	0	136573,57078	136573,57078	219	#RESOURCE_AREASET_TXT_000016#	20	0	r_talk78	0
6	#DARKBLUE_DARKBLUENPC_TXT_000001#	1	415	0	129486,49842	129486,49842	189	#RESOURCE_AREASET_TXT_000016#	20	0	r_talk79	0
7	#MISSCRIPT_MISSIONSCRIPT02_LUA_000151#	1	421	0	134652,45141	134652,45141	189	#RESOURCE_AREASET_TXT_000016#	20	0	r_talk80	0
8	#MISSCRIPT_MISSIONSCRIPT01_LUA_000421#	1	27	0	136058,51931	136058,51931	264	#RESOURCE_AREASET_TXT_000016#	20	0	r_talk81	0
9	#DARKBLUE_DARKBLUENPC_TXT_000002#	1	400	0	131083,53031	131083,53031	204	#RESOURCE_AREASET_TXT_000016#	20	0	r_talk82	0
10	#MISSCRIPT_MISSIONSCRIPT01_LUA_000376#	1	401	2	134926,53992	134926,53992	279	#RESOURCE_AREASET_TXT_000016#	20	0	r_talk83	0
11	#MISSCRIPT_MISSIONSCRIPT01_LUA_000410#	1	17	0	129074,54098	129074,54098	99	#RESOURCE_AREASET_TXT_000016#	20	0	r_talk84	0
12	#DARKBLUE_DARKBLUENPC_TXT_000003#	1	400	7	132304,54403	132304,54403	324	#RESOURCE_AREASET_TXT_000016#	20	0	GoToWhere	0
13	#DARKBLUE_DARKBLUENPC_TXT_000004#	1	425	0	133550,46900	133550,46900	189	#RESOURCE_AREASET_TXT_000016#	20	0	r_talk85	0
16	#MISSCRIPT_MISSIONSCRIPT01_LUA_000361#	1	12	0	123788,61340	123788,61340	159	#RESOURCE_AREASET_TXT_000017#	21	0	r_talk90	0
17	#MISSCRIPT_NPCDEFINE_LUA_000104#	1	444	0	138002,52336	138002,52336	24	#RESOURCE_AREASET_TXT_000015#	19	0	r_talk130	0
18	#MISSCRIPT_NPCDEFINE_LUA_000105#	1	402	0	137986,61256	137986,61256	174	#RESOURCE_AREASET_TXT_000015#	19	0	r_talk131	0
19	#MISSCRIPT_NPCDEFINE_LUA_000106#	1	421	0	159085,53164	159085,53164	219	#RESOURCE_AREASET_TXT_000017#	21	0	r_talk132	0
20	#MISSCRIPT_NPCDEFINE_LUA_000107#	1	429	0	153655,70473	153655,70473	309	#RESOURCE_AREASET_TXT_000017#	21	0	r_talk134	0
21	#MISSCRIPT_NPCDEFINE_LUA_000108#	1	441	0	127507,67204	127507,67204	219	#RESOURCE_AREASET_TXT_000017#	21	0	r_talk135	0
22	#MISSCRIPT_MISSIONSCRIPT02_LUA_000177#	1	442	0	114118,57546	114118,57546	114	#RESOURCE_AREASET_TXT_000017#	21	0	r_talk136	0
23	#MISSCRIPT_NPCDEFINE_LUA_000109#	1	415	0	106780,45276	106780,45276	84	#RESOURCE_AREASET_TXT_000017#	21	0	r_talk137	0
24	#MISSCRIPT_NPCDEFINE_LUA_000110#	1	420	0	96497,42207	96497,42207	144	#RESOURCE_AREASET_TXT_000017#	21	0	r_talk138	0
25	#MISSCRIPT_NPCDEFINE_LUA_000111#	1	423	0	101059,35051	101059,35051	144	#RESOURCE_AREASET_TXT_000017#	21	0	r_talk139	0
26	#MISSCRIPT_NPCDEFINE_LUA_000112#	1	424	0	142607,28569	142607,28569	129	#RESOURCE_AREASET_TXT_000017#	21	0	r_talk140	0
27	#MISSCRIPT_NPCDEFINE_LUA_000113#	1	437	0	116325,43576	116325,43576	174	#RESOURCE_AREASET_TXT_000017#	21	0	r_talk141	0
28	#MISSCRIPT_NPCDEFINE_LUA_000114#	1	443	0	116056,69273	116056,69273	219	#RESOURCE_AREASET_TXT_000017#	21	0	r_talk142	0
29	#MISSCRIPT_NPCDEFINE_LUA_000115#	1	19	0	104332,78068	104332,78068	189	#RESOURCE_AREASET_TXT_000017#	21	0	r_talk143	0
30	#MISSCRIPT_NPCDEFINE_LUA_000116#	1	16	0	93685,81858	93685,81858	9	#RESOURCE_AREASET_TXT_000017#	21	0	r_talk144	0
31	#MISSCRIPT_NPCDEFINE_LUA_000117#	1	19	0	78915,79584	78915,79584	54	#RESOURCE_AREASET_TXT_000017#	21	0	r_talk145	0
32	#MISSCRIPT_NPCDEFINE_LUA_000118#	1	404	0	99778,45483	99778,45483	144	#RESOURCE_AREASET_TXT_000017#	21	0	r_talk148	0
33	#MISSCRIPT_NPCDEFINE_LUA_000119#	1	443	0	128093,47812	128093,47812	294	#RESOURCE_AREASET_TXT_000016#	20	0	r_talk149	0
34	#MISSCRIPT_NPCDEFINE_LUA_000120#	1	442	9	121425,68118	121425,68118	159	#RESOURCE_AREASET_TXT_000017#	21	0	r_talk154	0
35	#MISSCRIPT_NPCDEFINE_LUA_000121#	1	405	0	122154,62890	122154,62890	129	#RESOURCE_AREASET_TXT_000017#	21	0	r_talk155	0
36	#MISSCRIPT_NPCDEFINE_LUA_000122#	1	445	0	122113,61745	122113,61745	99	#RESOURCE_AREASET_TXT_000017#	21	0	r_talk156	0
37	#MISSCRIPT_NPCDEFINE_LUA_000123#	1	16	0	102816,66840	102816,66840	99	#BIRTH_BIRTH_CONF_LUA_000015#	59	0	r_talk126	0
38	#MISSCRIPT_NPCDEFINE_LUA_000124#	1	445	0	103790,67165	103790,67165	9	#BIRTH_BIRTH_CONF_LUA_000015#	59	0	r_talk170	0
39	#MISSCRIPT_MISSIONSCRIPT02_LUA_000162#	1	431	0	102832,64970	102832,64970	174	#BIRTH_BIRTH_CONF_LUA_000015#	59	0	r_talk118	0
40	#MISSCRIPT_NPCDEFINE_LUA_000125#	1	30	0	104946,67361	104946,67361	324	#BIRTH_BIRTH_CONF_LUA_000015#	59	0	r_talk106	0
41	#MISSCRIPT_NPCDEFINE_LUA_000126#	1	420	11	105963,66117	105963,66117	303	#BIRTH_BIRTH_CONF_LUA_000015#	59	0	r_talk171	0
42	#DARKBLUE_DARKBLUENPC_TXT_000005#	1	400	7	104687,63961	104687,63961	84	#BIRTH_BIRTH_CONF_LUA_000015#	59	0	transmittal	0
43	#MISSCRIPT_NPCDEFINE_LUA_000127#	1	442	0	213412,55559	213412,55559	129	#BIRTH_BIRTH_CONF_LUA_000016#	60	0	r_talk119	0
44	#MISSCRIPT_NPCDEFINE_LUA_000128#	1	405	0	213813,54555	213813,54555	159	#BIRTH_BIRTH_CONF_LUA_000016#	60	0	r_talk172	0
45	#MISSCRIPT_NPCDEFINE_LUA_000129#	1	413	11	214262,55609	214262,55609	204	#BIRTH_BIRTH_CONF_LUA_000016#	60	0	r_talk173	0
46	#DARKBLUE_DARKBLUENPC_TXT_000006#	1	400	7	211692,55139	211692,55139	144	#BIRTH_BIRTH_CONF_LUA_000016#	60	0	transmittal	0
47	#MISSCRIPT_NPCDEFINE_LUA_000130#	1	443	0	267573,63174	267573,63174	170	#BIRTH_BIRTH_CONF_LUA_000017#	64	0	r_talk121	0
48	#MISSCRIPT_NPCDEFINE_LUA_000131#	1	402	0	266885,63490	266885,63490	159	#BIRTH_BIRTH_CONF_LUA_000017#	64	0	r_talk99	0
49	#MISSCRIPT_NPCDEFINE_LUA_000132#	1	402	0	266292,64821	266292,64821	99	#BIRTH_BIRTH_CONF_LUA_000017#	64	0	r_talk174	0
50	#MISSCRIPT_NPCDEFINE_LUA_000133#	1	17	11	268019,65721	268019,65721	-34	#BIRTH_BIRTH_CONF_LUA_000017#	64	0	r_talk95	0
51	#DARKBLUE_DARKBLUENPC_TXT_000007#	1	400	7	269637,63821	269637,63821	159	#BIRTH_BIRTH_CONF_LUA_000017#	64	0	transmittal	0
52	#MISSCRIPT_NPCDEFINE_LUA_000134#	1	421	0	80392,35216	80392,35216	144	#BIRTH_BIRTH_CONF_LUA_000014#	56	0	r_talk110	0
53	#MISSCRIPT_NPCDEFINE_LUA_000135#	1	26	0	79533,36321	79533,36321	88	#BIRTH_BIRTH_CONF_LUA_000014#	56	0	r_talk127	0
54	#MISSCRIPT_NPCDEFINE_LUA_000136#	1	24	0	79849,36993	79849,36993	54	#BIRTH_BIRTH_CONF_LUA_000014#	56	0	r_talk175	0
55	#MISSCRIPT_NPCDEFINE_LUA_000137#	1	429	11	80869,37361	80869,37361	39	#BIRTH_BIRTH_CONF_LUA_000014#	56	0	r_talk176	0
56	#DARKBLUE_DARKBLUENPC_TXT_000008#	1	400	7	81800,35420	81800,35420	159	#BIRTH_BIRTH_CONF_LUA_000014#	56	0	transmittal	0
57	#MISSCRIPT_NPCDEFINE_LUA_000147#	1	445	0	212875,54026	212875,54026	179	#BIRTH_BIRTH_CONF_LUA_000016#	60	0	r_talk177	0
58	#DARKBLUE_DARKBLUENPC_TXT_000009#	1	453	9	164218,198624	164218,198624	9	#BIRTH_BIRTH_CONF_LUA_000024#	70	0	r_talk202	0
59	#DARKBLUE_DARKBLUENPC_TXT_000010#	1	453	9	19433,171580	19433,171580	20	#RESOURCE_AREASET_TXT_000054#	83	0	r_talk203	0
60	#MISSCRIPT_NPCDEFINE_LUA_000158#	1	453	9	73818,380324	73818,380324	20	#RESOURCE_AREASET_TXT_000055#	84	0	r_talk204	0
61	#MISSCRIPT_NPCDEFINE_LUA_000153#	1	453	9	229717,372373	229717,372373	0	#RESOURCE_AREASET_TXT_000056#	85	0	r_talk205	0
62	#DARKBLUE_DARKBLUENPC_TXT_000011#	1	17	4	161915,197629	161915,197629	54	#BIRTH_BIRTH_CONF_LUA_000024#	70	0	r_talk206	0
63	#DARKBLUE_DARKBLUENPC_TXT_000012#	1	17	4	126028,57359	126028,57359	155	#RESOURCE_AREASET_TXT_000016#	20	0	r_talk209	0
64	#DARKBLUE_DARKBLUENPC_TXT_000013#	1	440	9	105951,67052	105951,67052	189	#BIRTH_BIRTH_CONF_LUA_000015#	59	0	r_talk220	0
65	#DARKBLUE_DARKBLUENPC_TXT_000014#	1	11	7	163428,196823	163428,196823	219	#BIRTH_BIRTH_CONF_LUA_000024#	70	0	island	0
67	#DARKBLUE_DARKBLUENPC_TXT_000015#	1	11	7	219573,278526	219573,278526	-137	#RESOURCE_AREASET_TXT_000024#	29	0	r_talk223	0
68	#DARKBLUE_DARKBLUENPC_TXT_000016#	1	454	0	132068,58570	132068,58570	302	#RESOURCE_AREASET_TXT_000016#	20	0	r_talk226	0
69	#DARKBLUE_DARKBLUENPC_TXT_000017#	1	401	0	266432,65465	266432,65465	56	#BIRTH_BIRTH_CONF_LUA_000017#	64	0	r_talk227	0
70	#DARKBLUE_DARKBLUENPC_TXT_000018#	1	423	0	267878,63126	267878,63126	169	#BIRTH_BIRTH_CONF_LUA_000017#	64	0	r_talk232	0
71	#DARKBLUE_DARKBLUENPC_TXT_000019#	1	429	0	268875,62828	268875,62828	179	#BIRTH_BIRTH_CONF_LUA_000017#	64	0	r_talk233	0
72	#DARKBLUE_DARKBLUENPC_TXT_000020#	1	19	17	132674,53171	132674,53171	211	#RESOURCE_AREASET_TXT_000016#	20	0	r_talk234	0
73	#DARKBLUE_DARKBLUENPC_TXT_000021#	1	19	13	267328,65777	267328,65777	3	#BIRTH_BIRTH_CONF_LUA_000017#	64	0	r_talk241	0
74	#DARKBLUE_DARKBLUENPC_TXT_000022#	1	440	9	198124,55024	198124,55024	160	#RESOURCE_AREASET_TXT_000018#	22	0	r_talk246	0
75	#DARKBLUE_DARKBLUENPC_TXT_000023#	1	733	1	331665,251639	331665,251639	354	#BIRTH_BIRTH_CONF_LUA_000045#	24	0	b_talk1	0
76	#DARKBLUE_DARKBLUENPC_TXT_000024#	1	737	11	330251,250183	330251,250183	174	#BIRTH_BIRTH_CONF_LUA_000045#	24	0	b_talk2	0
77	#DARKBLUE_DARKBLUENPC_TXT_000025#	1	758	12	327981,250143	327981,250143	159	#BIRTH_BIRTH_CONF_LUA_000045#	24	0	b_talk3	0
78	#DARKBLUE_DARKBLUENPC_TXT_000026#	1	756	4	319561,250611	319561,250611	118	#BIRTH_BIRTH_CONF_LUA_000045#	24	0	b_talk4	0
79	#DARKBLUE_DARKBLUENPC_TXT_000027#	1	732	7	332693,251188	332693,251188	339	#BIRTH_BIRTH_CONF_LUA_000045#	24	0	b_talk5	0
80	#DARKBLUE_DARKBLUENPC_TXT_000028#	1	759	0	326250,250244	326250,250244	354	#BIRTH_BIRTH_CONF_LUA_000045#	24	0	b_talk6	0
81	#DARKBLUE_DARKBLUENPC_TXT_000029#	1	738	0	328713,250185	328713,250185	174	#BIRTH_BIRTH_CONF_LUA_000045#	24	0	b_talk7	0
82	#DARKBLUE_DARKBLUENPC_TXT_000030#	1	760	9	340930,256021	340930,256021	189	#BIRTH_BIRTH_CONF_LUA_000045#	24	0	b_talk8	0
83	#DARKBLUE_DARKBLUENPC_TXT_000031#	1	755	0	329078,251295	329078,251295	354	#BIRTH_BIRTH_CONF_LUA_000045#	24	0	b_talk9	0
84	#DARKBLUE_DARKBLUENPC_TXT_000032#	1	771	0	330384,253395	330384,253395	9	#BIRTH_BIRTH_CONF_LUA_000045#	24	0	b_talk10	0
85	#DARKBLUE_DARKBLUENPC_TXT_000033#	1	773	0	329820,253400	329820,253400	339	#BIRTH_BIRTH_CONF_LUA_000045#	24	0	b_talk11	0
86	#MISSCRIPT_MISSIONSCRIPT02_LUA_001322#	1	772	0	327579,246787	327579,246787	219	#BIRTH_BIRTH_CONF_LUA_000045#	24	0	b_talk12	0
87	#MISSCRIPT_MISSIONSCRIPT02_LUA_001316#	1	774	0	324125,253336	324125,253336	281	#BIRTH_BIRTH_CONF_LUA_000045#	24	0	b_talk13	0
88	#DARKBLUE_DARKBLUENPC_TXT_000034#	1	779	0	323545,255054	323545,255054	9	#BIRTH_BIRTH_CONF_LUA_000045#	24	0	b_talk14	0
89	#DARKBLUE_DARKBLUENPC_TXT_000035#	1	775	0	326505,254765	326505,254765	324	#BIRTH_BIRTH_CONF_LUA_000045#	24	0	b_talk15	0
90	#DARKBLUE_DARKBLUENPC_TXT_000036#	1	736	0	221900,328600	221900,328600	9	#BIRTH_BIRTH_CONF_LUA_000045#	24	0	b_talk16	0
91	#DARKBLUE_DARKBLUENPC_TXT_000037#	1	735	0	330030,251341	330030,251341	9	#BIRTH_BIRTH_CONF_LUA_000045#	24	0	b_talk17	0
92	#DARKBLUE_DARKBLUENPC_TXT_000038#	1	442	9	368558,265209	368558,265209	219	#BIRTH_BIRTH_CONF_LUA_000045#	24	0	b_talk19	0
93	#DARKBLUE_DARKBLUENPC_TXT_000039#	1	442	9	333797,352337	333797,352337	118	#BIRTH_BIRTH_CONF_LUA_000045#	24	0	b_talk20	0
94	#RESOURCE_CHARACTERINFO_TXT_000426#	1	415	4	137000,58700	137000,58700	90	#RESOURCE_AREASET_TXT_000016#	20	0	leo_talk10	0
95	#RESOURCE_CHARACTERINFO_TXT_000409#	1	839	9	325750,250244	325750,250244	354	#BIRTH_BIRTH_CONF_LUA_000045#	24	0	star_talk02	0
96	#RESOURCE_CHARACTERINFO_TXT_000433#	1	867	0	136300,56300	136300,56300	180	#RESOURCE_AREASET_TXT_000016#	20	0	b_talk25	0
//97	#DARKBLUE_DARKBLUENPC_TXT_000040#	1	866	0	134100,56500	130700,50000	45	#RESOURCE_AREASET_TXT_000016#	20	0	b_talk28	0
98	#DARKBLUE_DARKBLUENPC_TXT_000041#	1	424	0	137411,52911	137411,52911	210	#RESOURCE_AREASET_TXT_000016#	20	0	kk_talk01	0
100	#DARKBLUE_DARKBLUENPC_TXT_000042#	1	415	4	137000,58900	137000,58900	90	#RESOURCE_AREASET_TXT_000016#	20	0	leo_talkcc	0
101	Assistant - Blue	1	442	0	134000,56100	134000,56100	30	Lower Icicle Castle	20	0	max_talka1	0	
102	#DARKBLUE_DARKBLUENPC_TXT_000043#	1	25	0	136400,56100	136400,56100	180	#RESOURCE_AREASET_TXT_000016#	20	0	max_talka2	0
103	#DARKBLUE_DARKBLUENPC_TXT_000044#	1	424	0	145000,61300	145000,61300	255	#RESOURCE_AREASET_TXT_000016#	20	0	roico_talk	0
//105	ZhiNu	1	774	0	322000,248900	322000,248900	45	#BIRTH_BIRTH_CONF_LUA_000045#	24	0	amon_talk3	0
//106	NiuLang	1	772	0	373400,264900	373400,264900	45	RESOURCE_AREASET_TXT_000016	27	0	amon_talk2	0
113	#MISSCRIPT_MISSIONSCRIPT02_LUA_001328#	1	442	0	242300,318600	242300,318600	150	#RESOURCE_AREASET_TXT_000024#	29	0	el_talk24	0
114	#DARKBLUE_DARKBLUENPC_TXT_000045#	1	16	0	130700,50000	130700,50000	-109	#RESOURCE_AREASET_TXT_000016#	20	0	pre_talk	0
125	#MISSCRIPT_MISSIONSCRIPT02_LUA_001339#	1	1079	0	258200,324500	258200,324500	180	#RESOURCE_AREASET_TXT_000024#	29	0	d_talk23	0
126	#DARKBLUE_DARKBLUENPC_TXT_000046#	1	29	3	132900,54400	132900,54400	324	#RESOURCE_AREASET_TXT_000016#	20	0	r_talk281	0
127	#DARKBLUE_DARKBLUENPC_TXT_000047#	1	29	3	212100,55000	212100,55000	144	#BIRTH_BIRTH_CONF_LUA_000016#	60	0	r_talk282	0
128	#DARKBLUE_DARKBLUENPC_TXT_000048#	1	29	3	270000,63800	270000,63800	159	#BIRTH_BIRTH_CONF_LUA_000017#	64	0	r_talk283	0
129	#DARKBLUE_DARKBLUENPC_TXT_000049#	1	29	3	82200,35300	82200,35300	159	#RESOURCE_AREASET_TXT_000017#	21	0	r_talk284	0
130	#DARKBLUE_DARKBLUENPC_TXT_000050#	1	29	3	163600,197100	163600,197100	219	#BIRTH_BIRTH_CONF_LUA_000024#	70	0	r_talk285	0
131	#DARKBLUE_DARKBLUENPC_TXT_000051#	1	29	3	104600,64300	104600,64300	84	#RESOURCE_AREASET_TXT_000017#	21	0	r_talk286	0
132	#DARKBLUE_DARKBLUENPC_TXT_000052#	1	29	3	332200,251200	332200,251200	339	#BIRTH_BIRTH_CONF_LUA_000045#	24	0	r_talk287	0
133	#CALCULATE_FUNCTIONS_LUA_000689#	1	1140	0	132000,54500	132000,54500	270	#RESOURCE_AREASET_TXT_000016#	13	0	e_talk001	0
134	#MISSCRIPT_MISSIONSCRIPT05_LUA_001026#	1	1141	0	130900,50600	130900,50601	225	#RESOURCE_AREASET_TXT_000016#	13	0	e_talk003	0
135	#DARKBLUE_DARKBLUENPC_TXT_000053#	1	30	0	136800,57200	136800,57200	219	#RESOURCE_AREASET_TXT_000016#	20	0	mian_talk04	0
//141	#DARKBLUE_DARKBLUENPC_TXT_000054#	1	425	0	320100,247000	320100,247000	180	#BIRTH_BIRTH_CONF_LUA_000045#	24	0	yrj_talk01	0
//141	Santa Claus	1	781	0	131100,49700	131100,49700	354	RESOURCE_AREASET_TXT_000016	20	0	sd_talk01	0